program
int
ID (n)
COMMA
ID (candidate)
SEMICOLON
int
ID (i)
SEMICOLON
int
ID (true)
COMMA
ID (false)
SEMICOLON
int
ID (isPrime)
COMMA
ID (done)
SEMICOLON
ID (true)
ASSIGN_SYMBOL
INT_LITERAL (1)
SEMICOLON
ID (false)
ASSIGN_SYMBOL
INT_LITERAL (0)
SEMICOLON
read
ID (n)
SEMICOLON
for
LPAREN
ID (candidate)
ASSIGN_SYMBOL
INT_LITERAL (2)
COMMA
ID (n)
RPAREN
LBRACE
ID (isPrime)
ASSIGN_SYMBOL
ID (true)
SEMICOLON
ID (done)
ASSIGN_SYMBOL
ID (false)
SEMICOLON
while
LPAREN
ID (done)
EQUAL_OP
ID (false)
RPAREN
if
LPAREN
ID (n)
MOD_OP
ID (i)
EQUAL_OP
INT_LITERAL (0)
RPAREN
LBRACE
ID (done)
ASSIGN_SYMBOL
ID (true)
SEMICOLON
ID (isPrime)
ASSIGN_SYMBOL
ID (false)
SEMICOLON
RBRACE
else
LBRACE
ID (i)
ASSIGN_SYMBOL
ID (i)
ADD_OP
INT_LITERAL (1)
SEMICOLON
if
LPAREN
ID (i)
GT
ID (n)
DIV_OP
INT_LITERAL (2)
RPAREN
LBRACE
ID (done)
ASSIGN_SYMBOL
ID (false)
SEMICOLON
ID (isPrime)
ASSIGN_SYMBOL
ID (true)
SEMICOLON
RBRACE
RBRACE
if
LPAREN
ID (isPrime)
EQUAL_OP
ID (true)
RPAREN
print
ID (candidate)
SEMICOLON
RBRACE
end
